EESchema Schematic File Version 4
EELAYER 30 0
EELAYER END
$Descr A4 11693 8268
encoding utf-8
Sheet 1 2
Title ""
Date ""
Rev ""
Comp ""
Comment1 ""
Comment2 ""
Comment3 ""
Comment4 ""
$EndDescr
$Sheet
S 5100 3400 900  1550
U 603A6A36
F0 "MCU" 50
F1 "MCU.sch" 50
F2 "D0_Rx" I R 6000 4850 50 
F3 "D1_Tx" I R 6000 4750 50 
F4 "D2" I R 6000 4650 50 
F5 "D3_CAN_Cs" I R 6000 4550 50 
F6 "D4" I R 6000 4450 50 
F7 "D5" I R 6000 4350 50 
F8 "D6_Can_Int" I R 6000 4250 50 
F9 "D7" I R 6000 4150 50 
F10 "D8_Led1" I R 6000 4000 50 
F11 "D9_Led2" I R 6000 3900 50 
F12 "D10_Eth_Cs" I R 6000 3800 50 
F13 "D11_MOSI" I R 6000 3700 50 
F14 "D12_MISO" I R 6000 3600 50 
F15 "D13_SCK" I R 6000 3500 50 
F16 "D14_A0" I L 5100 4850 50 
F17 "D15_A1" I L 5100 4750 50 
F18 "D16_A2" I L 5100 4650 50 
F19 "D17_A3" I L 5100 4550 50 
F20 "D18_A4" I L 5100 4450 50 
F21 "D19_A5" I L 5100 4350 50 
$EndSheet
$EndSCHEMATC
