EESchema Schematic File Version 4
EELAYER 30 0
EELAYER END
$Descr A4 11693 8268
encoding utf-8
Sheet 2 2
Title ""
Date ""
Rev ""
Comp ""
Comment1 ""
Comment2 ""
Comment3 ""
Comment4 ""
$EndDescr
Wire Notes Line
	650  700  650  1900
Text Notes 650  700  0    50   ~ 0
Input Voltage Regulator
Wire Notes Line
	3300 700  650  700 
Wire Notes Line
	3300 1900 3300 700 
Wire Notes Line
	650  1900 3300 1900
Wire Wire Line
	1300 1050 1400 1050
Wire Wire Line
	1300 1000 1300 1050
$Comp
L power:VS #PWR?
U 1 1 603D5983
P 1300 1000
AR Path="/603D5983" Ref="#PWR?"  Part="1" 
AR Path="/603A6A36/603D5983" Ref="#PWR0101"  Part="1" 
F 0 "#PWR0101" H 1100 850 50  0001 C CNN
F 1 "VS" H 1315 1173 50  0000 C CNN
F 2 "" H 1300 1000 50  0001 C CNN
F 3 "" H 1300 1000 50  0001 C CNN
	1    1300 1000
	1    0    0    -1  
$EndComp
Wire Wire Line
	750  1050 850  1050
Wire Wire Line
	750  1000 750  1050
$Comp
L power:VCC #PWR?
U 1 1 603D598B
P 750 1000
AR Path="/603D598B" Ref="#PWR?"  Part="1" 
AR Path="/603A6A36/603D598B" Ref="#PWR0102"  Part="1" 
F 0 "#PWR0102" H 750 850 50  0001 C CNN
F 1 "VCC" H 765 1173 50  0000 C CNN
F 2 "" H 750 1000 50  0001 C CNN
F 3 "" H 750 1000 50  0001 C CNN
	1    750  1000
	1    0    0    -1  
$EndComp
Wire Wire Line
	3000 950  3000 1050
$Comp
L power:+3.3V #PWR?
U 1 1 603D5992
P 3000 950
AR Path="/603D5992" Ref="#PWR?"  Part="1" 
AR Path="/603A6A36/603D5992" Ref="#PWR0103"  Part="1" 
F 0 "#PWR0103" H 3000 800 50  0001 C CNN
F 1 "+3.3V" H 3015 1123 50  0000 C CNN
F 2 "" H 3000 950 50  0001 C CNN
F 3 "" H 3000 950 50  0001 C CNN
	1    3000 950 
	1    0    0    -1  
$EndComp
Wire Wire Line
	2600 1650 2600 1550
$Comp
L power:GND #PWR?
U 1 1 603D5999
P 2600 1650
AR Path="/603D5999" Ref="#PWR?"  Part="1" 
AR Path="/603A6A36/603D5999" Ref="#PWR0104"  Part="1" 
F 0 "#PWR0104" H 2600 1400 50  0001 C CNN
F 1 "GND" H 2605 1477 50  0000 C CNN
F 2 "" H 2600 1650 50  0001 C CNN
F 3 "" H 2600 1650 50  0001 C CNN
	1    2600 1650
	1    0    0    -1  
$EndComp
Wire Wire Line
	3000 1050 2900 1050
Connection ~ 3000 1050
Wire Wire Line
	3000 1250 3000 1050
Wire Wire Line
	3000 1550 3000 1450
Wire Wire Line
	2600 1550 3000 1550
Connection ~ 2600 1550
Wire Wire Line
	2600 1350 2600 1550
Wire Wire Line
	2200 1550 2600 1550
Wire Wire Line
	2200 1450 2200 1550
Wire Wire Line
	2200 1050 2300 1050
Wire Wire Line
	2200 1250 2200 1050
$Comp
L Device:C_Small C?
U 1 1 603D59AA
P 3000 1350
AR Path="/603D59AA" Ref="C?"  Part="1" 
AR Path="/603A6A36/603D59AA" Ref="C6"  Part="1" 
F 0 "C6" H 3092 1396 50  0000 L CNN
F 1 "10u" H 3092 1305 50  0000 L CNN
F 2 "Capacitor_SMD:C_0805_2012Metric" H 3000 1350 50  0001 C CNN
F 3 "~" H 3000 1350 50  0001 C CNN
	1    3000 1350
	1    0    0    -1  
$EndComp
$Comp
L Device:C_Small C?
U 1 1 603D59B0
P 2200 1350
AR Path="/603D59B0" Ref="C?"  Part="1" 
AR Path="/603A6A36/603D59B0" Ref="C5"  Part="1" 
F 0 "C5" H 2292 1396 50  0000 L CNN
F 1 "10u" H 2292 1305 50  0000 L CNN
F 2 "Capacitor_SMD:C_0805_2012Metric" H 2200 1350 50  0001 C CNN
F 3 "~" H 2200 1350 50  0001 C CNN
	1    2200 1350
	1    0    0    -1  
$EndComp
Connection ~ 2200 1050
Wire Wire Line
	2100 1050 2200 1050
Wire Wire Line
	1600 1050 1900 1050
Connection ~ 1300 1050
Wire Wire Line
	1150 1050 1300 1050
$Comp
L Device:D_Schottky_Small D?
U 1 1 603D59BB
P 1050 1050
AR Path="/603D59BB" Ref="D?"  Part="1" 
AR Path="/603A6A36/603D59BB" Ref="D1"  Part="1" 
F 0 "D1" H 1050 843 50  0000 C CNN
F 1 "D5819W" H 1050 934 50  0000 C CNN
F 2 "Diode_SMD:D_SOD-123" V 1050 1050 50  0001 C CNN
F 3 "~" V 1050 1050 50  0001 C CNN
	1    1050 1050
	-1   0    0    1   
$EndComp
$Comp
L Device:Fuse_Small F?
U 1 1 603D59C1
P 1500 1050
AR Path="/603D59C1" Ref="F?"  Part="1" 
AR Path="/603A6A36/603D59C1" Ref="F1"  Part="1" 
F 0 "F1" H 1500 1235 50  0000 C CNN
F 1 "800mA" H 1500 1144 50  0000 C CNN
F 2 "Fuse:Fuse_0603_1608Metric_Pad1.05x0.95mm_HandSolder" H 1500 1050 50  0001 C CNN
F 3 "~" H 1500 1050 50  0001 C CNN
	1    1500 1050
	1    0    0    -1  
$EndComp
$Comp
L Device:Ferrite_Bead_Small FB?
U 1 1 603D59C7
P 2000 1050
AR Path="/603D59C7" Ref="FB?"  Part="1" 
AR Path="/603A6A36/603D59C7" Ref="FB1"  Part="1" 
F 0 "FB1" V 1763 1050 50  0000 C CNN
F 1 "100 @ 100MHz" V 1854 1050 50  0000 C CNN
F 2 "Inductor_SMD:L_0805_2012Metric" V 1930 1050 50  0001 C CNN
F 3 "~" H 2000 1050 50  0001 C CNN
	1    2000 1050
	0    1    1    0   
$EndComp
$Comp
L Regulator_Linear:AMS1117-3.3 U?
U 1 1 603D59CD
P 2600 1050
AR Path="/603D59CD" Ref="U?"  Part="1" 
AR Path="/603A6A36/603D59CD" Ref="U1"  Part="1" 
F 0 "U1" H 2600 1292 50  0000 C CNN
F 1 "AMS1117-3.3" H 2600 1201 50  0000 C CNN
F 2 "Package_TO_SOT_SMD:SOT-223-3_TabPin2" H 2600 1250 50  0001 C CNN
F 3 "http://www.advanced-monolithic.com/pdf/ds1117.pdf" H 2700 800 50  0001 C CNN
	1    2600 1050
	1    0    0    -1  
$EndComp
Text Notes 10050 2100 0    50   ~ 0
CAN
Wire Notes Line
	10050 2100 10050 3100
Wire Notes Line
	11100 2100 10050 2100
Wire Notes Line
	11100 3100 11100 2100
Wire Notes Line
	10050 3100 11100 3100
Text Notes 650  5100 0    50   ~ 0
ICSP
Wire Notes Line
	2200 5100 650  5100
Wire Notes Line
	2200 6000 2200 5100
Wire Notes Line
	650  6000 2200 6000
Wire Notes Line
	650  5100 650  6000
Text Notes 650  3350 0    50   ~ 0
Reset
Wire Notes Line
	2250 3350 650  3350
Wire Notes Line
	2250 4850 2250 3350
Wire Notes Line
	650  4850 2250 4850
Wire Notes Line
	650  3350 650  4850
Text Notes 8750 3250 0    50   ~ 0
Status Led
Wire Notes Line
	11100 3250 8750 3250
Wire Notes Line
	11100 6450 11100 3250
Wire Notes Line
	8750 6450 11100 6450
Wire Notes Line
	8750 3250 8750 6450
Text Notes 9150 600  0    50   ~ 0
Ethernet
Wire Notes Line
	9150 600  9150 2000
Wire Notes Line
	11100 600  9150 600 
Wire Notes Line
	11100 2000 11100 600 
Wire Notes Line
	9150 2000 11100 2000
$Comp
L power:+3.3V #PWR?
U 1 1 603D59F8
P 10850 2700
AR Path="/603D59F8" Ref="#PWR?"  Part="1" 
AR Path="/603A6A36/603D59F8" Ref="#PWR0105"  Part="1" 
F 0 "#PWR0105" H 10850 2550 50  0001 C CNN
F 1 "+3.3V" H 10650 2850 50  0000 L CNN
F 2 "" H 10850 2700 50  0001 C CNN
F 3 "" H 10850 2700 50  0001 C CNN
	1    10850 2700
	-1   0    0    1   
$EndComp
$Comp
L power:+3.3V #PWR?
U 1 1 603D59FE
P 9950 4650
AR Path="/603D59FE" Ref="#PWR?"  Part="1" 
AR Path="/603A6A36/603D59FE" Ref="#PWR0106"  Part="1" 
F 0 "#PWR0106" H 9950 4500 50  0001 C CNN
F 1 "+3.3V" H 9965 4823 50  0000 C CNN
F 2 "" H 9950 4650 50  0001 C CNN
F 3 "" H 9950 4650 50  0001 C CNN
	1    9950 4650
	1    0    0    -1  
$EndComp
$Comp
L power:+3.3V #PWR?
U 1 1 603D5A04
P 9550 3550
AR Path="/603D5A04" Ref="#PWR?"  Part="1" 
AR Path="/603A6A36/603D5A04" Ref="#PWR0107"  Part="1" 
F 0 "#PWR0107" H 9550 3400 50  0001 C CNN
F 1 "+3.3V" H 9565 3723 50  0000 C CNN
F 2 "" H 9550 3550 50  0001 C CNN
F 3 "" H 9550 3550 50  0001 C CNN
	1    9550 3550
	1    0    0    -1  
$EndComp
$Comp
L power:+3.3V #PWR?
U 1 1 603D5A0A
P 1850 5350
AR Path="/603D5A0A" Ref="#PWR?"  Part="1" 
AR Path="/603A6A36/603D5A0A" Ref="#PWR0108"  Part="1" 
F 0 "#PWR0108" H 1850 5200 50  0001 C CNN
F 1 "+3.3V" H 1865 5523 50  0000 C CNN
F 2 "" H 1850 5350 50  0001 C CNN
F 3 "" H 1850 5350 50  0001 C CNN
	1    1850 5350
	1    0    0    -1  
$EndComp
$Comp
L power:+3.3V #PWR?
U 1 1 603D5A10
P 1250 3650
AR Path="/603D5A10" Ref="#PWR?"  Part="1" 
AR Path="/603A6A36/603D5A10" Ref="#PWR0109"  Part="1" 
F 0 "#PWR0109" H 1250 3500 50  0001 C CNN
F 1 "+3.3V" H 1265 3823 50  0000 C CNN
F 2 "" H 1250 3650 50  0001 C CNN
F 3 "" H 1250 3650 50  0001 C CNN
	1    1250 3650
	1    0    0    -1  
$EndComp
$Comp
L power:+3.3V #PWR?
U 1 1 603D5A16
P 3900 2850
AR Path="/603D5A16" Ref="#PWR?"  Part="1" 
AR Path="/603A6A36/603D5A16" Ref="#PWR0110"  Part="1" 
F 0 "#PWR0110" H 3900 2700 50  0001 C CNN
F 1 "+3.3V" H 3915 3023 50  0000 C CNN
F 2 "" H 3900 2850 50  0001 C CNN
F 3 "" H 3900 2850 50  0001 C CNN
	1    3900 2850
	1    0    0    -1  
$EndComp
Wire Wire Line
	9950 5850 9950 6000
Wire Wire Line
	9500 5850 9950 5850
Text GLabel 9500 5850 0    50   Input ~ 0
Status_Led_2
Text GLabel 9550 5250 0    50   Input ~ 0
Status_Led_1
Wire Wire Line
	9500 4350 9700 4350
Text GLabel 9500 4350 0    50   Input ~ 0
Status_Led_2
Wire Wire Line
	9500 3950 9700 3950
Text GLabel 9500 3950 0    50   Input ~ 0
Status_Led_1
Wire Wire Line
	10650 4350 10650 4400
Wire Wire Line
	10500 4350 10650 4350
Wire Wire Line
	10000 4350 10200 4350
$Comp
L Device:R R?
U 1 1 603D5A29
P 10350 4350
AR Path="/603D5A29" Ref="R?"  Part="1" 
AR Path="/603A6A36/603D5A29" Ref="R9"  Part="1" 
F 0 "R9" V 10143 4350 50  0000 C CNN
F 1 "100R" V 10234 4350 50  0000 C CNN
F 2 "Resistor_SMD:R_0603_1608Metric" V 10280 4350 50  0001 C CNN
F 3 "~" H 10350 4350 50  0001 C CNN
	1    10350 4350
	0    1    1    0   
$EndComp
$Comp
L power:GND #PWR?
U 1 1 603D5A2F
P 10650 4400
AR Path="/603D5A2F" Ref="#PWR?"  Part="1" 
AR Path="/603A6A36/603D5A2F" Ref="#PWR0111"  Part="1" 
F 0 "#PWR0111" H 10650 4150 50  0001 C CNN
F 1 "GND" H 10655 4227 50  0000 C CNN
F 2 "" H 10650 4400 50  0001 C CNN
F 3 "" H 10650 4400 50  0001 C CNN
	1    10650 4400
	1    0    0    -1  
$EndComp
$Comp
L Device:LED D?
U 1 1 603D5A35
P 9850 4350
AR Path="/603D5A35" Ref="D?"  Part="1" 
AR Path="/603A6A36/603D5A35" Ref="D4"  Part="1" 
F 0 "D4" H 9843 4095 50  0000 C CNN
F 1 "Blue" H 9843 4186 50  0000 C CNN
F 2 "LED_SMD:LED_0603_1608Metric" H 9850 4350 50  0001 C CNN
F 3 "~" H 9850 4350 50  0001 C CNN
	1    9850 4350
	-1   0    0    1   
$EndComp
Wire Wire Line
	10650 3950 10650 4000
Wire Wire Line
	10500 3950 10650 3950
Wire Wire Line
	10000 3950 10200 3950
$Comp
L Device:R R?
U 1 1 603D5A3F
P 10350 3950
AR Path="/603D5A3F" Ref="R?"  Part="1" 
AR Path="/603A6A36/603D5A3F" Ref="R8"  Part="1" 
F 0 "R8" V 10143 3950 50  0000 C CNN
F 1 "100R" V 10234 3950 50  0000 C CNN
F 2 "Resistor_SMD:R_0603_1608Metric" V 10280 3950 50  0001 C CNN
F 3 "~" H 10350 3950 50  0001 C CNN
	1    10350 3950
	0    1    1    0   
$EndComp
$Comp
L power:GND #PWR?
U 1 1 603D5A45
P 10650 4000
AR Path="/603D5A45" Ref="#PWR?"  Part="1" 
AR Path="/603A6A36/603D5A45" Ref="#PWR0112"  Part="1" 
F 0 "#PWR0112" H 10650 3750 50  0001 C CNN
F 1 "GND" H 10655 3827 50  0000 C CNN
F 2 "" H 10650 4000 50  0001 C CNN
F 3 "" H 10650 4000 50  0001 C CNN
	1    10650 4000
	1    0    0    -1  
$EndComp
$Comp
L Device:LED D?
U 1 1 603D5A4B
P 9850 3950
AR Path="/603D5A4B" Ref="D?"  Part="1" 
AR Path="/603A6A36/603D5A4B" Ref="D3"  Part="1" 
F 0 "D3" H 9843 3695 50  0000 C CNN
F 1 "Red" H 9843 3786 50  0000 C CNN
F 2 "LED_SMD:LED_0603_1608Metric" H 9850 3950 50  0001 C CNN
F 3 "~" H 9850 3950 50  0001 C CNN
	1    9850 3950
	-1   0    0    1   
$EndComp
Wire Wire Line
	9550 3600 9700 3600
Wire Wire Line
	9550 3550 9550 3600
Wire Wire Line
	10650 3600 10650 3650
Wire Wire Line
	10500 3600 10650 3600
Wire Wire Line
	10000 3600 10200 3600
$Comp
L Device:R R?
U 1 1 603D5A56
P 10350 3600
AR Path="/603D5A56" Ref="R?"  Part="1" 
AR Path="/603A6A36/603D5A56" Ref="R7"  Part="1" 
F 0 "R7" V 10143 3600 50  0000 C CNN
F 1 "100R" V 10234 3600 50  0000 C CNN
F 2 "Resistor_SMD:R_0603_1608Metric" V 10280 3600 50  0001 C CNN
F 3 "~" H 10350 3600 50  0001 C CNN
	1    10350 3600
	0    1    1    0   
$EndComp
$Comp
L power:GND #PWR?
U 1 1 603D5A5C
P 10650 3650
AR Path="/603D5A5C" Ref="#PWR?"  Part="1" 
AR Path="/603A6A36/603D5A5C" Ref="#PWR0113"  Part="1" 
F 0 "#PWR0113" H 10650 3400 50  0001 C CNN
F 1 "GND" H 10655 3477 50  0000 C CNN
F 2 "" H 10650 3650 50  0001 C CNN
F 3 "" H 10650 3650 50  0001 C CNN
	1    10650 3650
	1    0    0    -1  
$EndComp
$Comp
L Device:LED D?
U 1 1 603D5A62
P 9850 3600
AR Path="/603D5A62" Ref="D?"  Part="1" 
AR Path="/603A6A36/603D5A62" Ref="D2"  Part="1" 
F 0 "D2" H 9843 3345 50  0000 C CNN
F 1 "Green" H 9843 3436 50  0000 C CNN
F 2 "LED_SMD:LED_0603_1608Metric" H 9850 3600 50  0001 C CNN
F 3 "~" H 9850 3600 50  0001 C CNN
	1    9850 3600
	-1   0    0    1   
$EndComp
Wire Wire Line
	9950 5250 9950 5400
Wire Wire Line
	9550 5250 9950 5250
Wire Wire Line
	9550 6100 9600 6100
Wire Wire Line
	9550 6200 9550 6100
$Comp
L power:GND #PWR?
U 1 1 603D5A6E
P 9550 6200
AR Path="/603D5A6E" Ref="#PWR?"  Part="1" 
AR Path="/603A6A36/603D5A6E" Ref="#PWR0114"  Part="1" 
F 0 "#PWR0114" H 9550 5950 50  0001 C CNN
F 1 "GND" H 9555 6027 50  0000 C CNN
F 2 "" H 9550 6200 50  0001 C CNN
F 3 "" H 9550 6200 50  0001 C CNN
	1    9550 6200
	1    0    0    -1  
$EndComp
Wire Wire Line
	9900 6100 10100 6100
Wire Wire Line
	9950 6000 10100 6000
$Comp
L Device:R R?
U 1 1 603D5A76
P 9750 6100
AR Path="/603D5A76" Ref="R?"  Part="1" 
AR Path="/603A6A36/603D5A76" Ref="R6"  Part="1" 
F 0 "R6" V 9543 6100 50  0000 C CNN
F 1 "100R" V 9634 6100 50  0000 C CNN
F 2 "Resistor_SMD:R_0603_1608Metric" V 9680 6100 50  0001 C CNN
F 3 "~" H 9750 6100 50  0001 C CNN
	1    9750 6100
	0    1    1    0   
$EndComp
$Comp
L Connector:Conn_01x02_Male J?
U 1 1 603D5A7C
P 10300 6100
AR Path="/603D5A7C" Ref="J?"  Part="1" 
AR Path="/603A6A36/603D5A7C" Ref="J6"  Part="1" 
F 0 "J6" H 10272 5982 50  0000 R CNN
F 1 "Status Led 2 (Red)" H 10272 6073 50  0000 R CNN
F 2 "Connector_PinHeader_2.54mm:PinHeader_1x02_P2.54mm_Vertical" H 10300 6100 50  0001 C CNN
F 3 "~" H 10300 6100 50  0001 C CNN
	1    10300 6100
	-1   0    0    1   
$EndComp
Wire Wire Line
	9550 5500 9600 5500
Wire Wire Line
	9550 5600 9550 5500
$Comp
L power:GND #PWR?
U 1 1 603D5A84
P 9550 5600
AR Path="/603D5A84" Ref="#PWR?"  Part="1" 
AR Path="/603A6A36/603D5A84" Ref="#PWR0115"  Part="1" 
F 0 "#PWR0115" H 9550 5350 50  0001 C CNN
F 1 "GND" H 9555 5427 50  0000 C CNN
F 2 "" H 9550 5600 50  0001 C CNN
F 3 "" H 9550 5600 50  0001 C CNN
	1    9550 5600
	1    0    0    -1  
$EndComp
Wire Wire Line
	9900 5500 10100 5500
Wire Wire Line
	9950 5400 10100 5400
$Comp
L Device:R R?
U 1 1 603D5A8C
P 9750 5500
AR Path="/603D5A8C" Ref="R?"  Part="1" 
AR Path="/603A6A36/603D5A8C" Ref="R5"  Part="1" 
F 0 "R5" V 9543 5500 50  0000 C CNN
F 1 "100R" V 9634 5500 50  0000 C CNN
F 2 "Resistor_SMD:R_0603_1608Metric" V 9680 5500 50  0001 C CNN
F 3 "~" H 9750 5500 50  0001 C CNN
	1    9750 5500
	0    1    1    0   
$EndComp
$Comp
L Connector:Conn_01x02_Male J?
U 1 1 603D5A92
P 10300 5500
AR Path="/603D5A92" Ref="J?"  Part="1" 
AR Path="/603A6A36/603D5A92" Ref="J5"  Part="1" 
F 0 "J5" H 10272 5382 50  0000 R CNN
F 1 "Status Led 1 (Blue)" H 10272 5473 50  0000 R CNN
F 2 "Connector_PinHeader_2.54mm:PinHeader_1x02_P2.54mm_Vertical" H 10300 5500 50  0001 C CNN
F 3 "~" H 10300 5500 50  0001 C CNN
	1    10300 5500
	-1   0    0    1   
$EndComp
Wire Wire Line
	9550 4850 9600 4850
Wire Wire Line
	9550 4950 9550 4850
$Comp
L power:GND #PWR?
U 1 1 603D5A9A
P 9550 4950
AR Path="/603D5A9A" Ref="#PWR?"  Part="1" 
AR Path="/603A6A36/603D5A9A" Ref="#PWR0116"  Part="1" 
F 0 "#PWR0116" H 9550 4700 50  0001 C CNN
F 1 "GND" H 9555 4777 50  0000 C CNN
F 2 "" H 9550 4950 50  0001 C CNN
F 3 "" H 9550 4950 50  0001 C CNN
	1    9550 4950
	1    0    0    -1  
$EndComp
Wire Wire Line
	9900 4850 10100 4850
Wire Wire Line
	9950 4750 10100 4750
Wire Wire Line
	9950 4650 9950 4750
$Comp
L Device:R R?
U 1 1 603D5AA3
P 9750 4850
AR Path="/603D5AA3" Ref="R?"  Part="1" 
AR Path="/603A6A36/603D5AA3" Ref="R4"  Part="1" 
F 0 "R4" V 9543 4850 50  0000 C CNN
F 1 "100R" V 9634 4850 50  0000 C CNN
F 2 "Resistor_SMD:R_0603_1608Metric" V 9680 4850 50  0001 C CNN
F 3 "~" H 9750 4850 50  0001 C CNN
	1    9750 4850
	0    1    1    0   
$EndComp
$Comp
L Connector:Conn_01x02_Male J?
U 1 1 603D5AA9
P 10300 4850
AR Path="/603D5AA9" Ref="J?"  Part="1" 
AR Path="/603A6A36/603D5AA9" Ref="J4"  Part="1" 
F 0 "J4" H 10272 4732 50  0000 R CNN
F 1 "Power Led (Green)" H 10272 4823 50  0000 R CNN
F 2 "Connector_PinHeader_2.54mm:PinHeader_1x02_P2.54mm_Vertical" H 10300 4850 50  0001 C CNN
F 3 "~" H 10300 4850 50  0001 C CNN
	1    10300 4850
	-1   0    0    1   
$EndComp
Text Notes 650  2050 0    50   ~ 0
Crystal
Wire Notes Line
	650  2050 2600 2050
Wire Notes Line
	650  3150 650  2050
Wire Notes Line
	2600 3150 650  3150
Wire Notes Line
	2600 2050 2600 3150
Text Notes 750  3100 0    50   ~ 0
Cl = 2 * (9p - 3p) = 12
Text Notes 750  2950 0    50   ~ 0
Cl = 2 * (CLOAD_CRYSTAL - CPARASITIC)
Wire Wire Line
	1700 2550 1900 2550
Connection ~ 1700 2550
Wire Wire Line
	1700 2150 1700 2550
Wire Wire Line
	1550 2150 1700 2150
Wire Wire Line
	1550 2200 1550 2150
Wire Wire Line
	1300 2300 1450 2300
Wire Wire Line
	1300 2350 1300 2300
Wire Wire Line
	1550 2550 1550 2400
Wire Wire Line
	1700 2550 1550 2550
Wire Wire Line
	1300 2550 1550 2550
Connection ~ 1550 2550
Wire Wire Line
	1650 2300 1900 2300
Wire Wire Line
	1900 2300 1950 2300
Connection ~ 1900 2300
Wire Wire Line
	1900 2350 1900 2300
Wire Wire Line
	2150 2300 2250 2300
Connection ~ 1300 2300
Wire Wire Line
	1150 2300 1300 2300
$Comp
L Device:C_Small C?
U 1 1 603D5B13
P 1900 2450
AR Path="/603D5B13" Ref="C?"  Part="1" 
AR Path="/603A6A36/603D5B13" Ref="C4"  Part="1" 
F 0 "C4" H 1992 2496 50  0000 L CNN
F 1 "12pF" H 1992 2405 50  0000 L CNN
F 2 "Capacitor_SMD:C_0603_1608Metric" H 1900 2450 50  0001 C CNN
F 3 "~" H 1900 2450 50  0001 C CNN
	1    1900 2450
	1    0    0    -1  
$EndComp
$Comp
L Device:C_Small C?
U 1 1 603D5B19
P 1300 2450
AR Path="/603D5B19" Ref="C?"  Part="1" 
AR Path="/603A6A36/603D5B19" Ref="C3"  Part="1" 
F 0 "C3" H 1000 2450 50  0000 L CNN
F 1 "12pF" H 900 2350 50  0000 L CNN
F 2 "Capacitor_SMD:C_0603_1608Metric" H 1300 2450 50  0001 C CNN
F 3 "~" H 1300 2450 50  0001 C CNN
	1    1300 2450
	1    0    0    -1  
$EndComp
$Comp
L Device:R_Small R?
U 1 1 603D5B1F
P 2050 2300
AR Path="/603D5B1F" Ref="R?"  Part="1" 
AR Path="/603A6A36/603D5B1F" Ref="R3"  Part="1" 
F 0 "R3" V 1854 2300 50  0000 C CNN
F 1 "220" V 1945 2300 50  0000 C CNN
F 2 "Resistor_SMD:R_0402_1005Metric" H 2050 2300 50  0001 C CNN
F 3 "~" H 2050 2300 50  0001 C CNN
	1    2050 2300
	0    1    1    0   
$EndComp
$Comp
L Device:Crystal_GND24_Small HSE?
U 1 1 603D5B25
P 1550 2300
AR Path="/603D5B25" Ref="HSE?"  Part="1" 
AR Path="/603A6A36/603D5B25" Ref="HSE1"  Part="1" 
F 0 "HSE1" H 1250 2500 50  0000 L CNN
F 1 "16MHZ" H 1250 2400 50  0000 L CNN
F 2 "Crystal:Crystal_SMD_3225-4Pin_3.2x2.5mm" H 1550 2300 50  0001 C CNN
F 3 "~" H 1550 2300 50  0001 C CNN
	1    1550 2300
	1    0    0    -1  
$EndComp
Wire Wire Line
	10550 1450 10350 1450
Text GLabel 10550 1450 2    50   Input ~ 0
MISO
Wire Wire Line
	10350 1150 10550 1150
Wire Wire Line
	10350 1050 10550 1050
Wire Wire Line
	10550 1150 10550 1100
Wire Wire Line
	10550 1050 10550 1100
Connection ~ 10550 1100
$Comp
L power:+3.3V #PWR?
U 1 1 603D5B4C
P 10550 1100
AR Path="/603D5B4C" Ref="#PWR?"  Part="1" 
AR Path="/603A6A36/603D5B4C" Ref="#PWR0117"  Part="1" 
F 0 "#PWR0117" H 10550 950 50  0001 C CNN
F 1 "+3.3V" V 10565 1228 50  0000 L CNN
F 2 "" H 10550 1100 50  0001 C CNN
F 3 "" H 10550 1100 50  0001 C CNN
	1    10550 1100
	0    1    1    0   
$EndComp
Wire Wire Line
	10650 950  10350 950 
$Comp
L power:GND #PWR?
U 1 1 603D5B53
P 10650 950
AR Path="/603D5B53" Ref="#PWR?"  Part="1" 
AR Path="/603A6A36/603D5B53" Ref="#PWR0118"  Part="1" 
F 0 "#PWR0118" H 10650 700 50  0001 C CNN
F 1 "GND" V 10655 822 50  0000 R CNN
F 2 "" H 10650 950 50  0001 C CNN
F 3 "" H 10650 950 50  0001 C CNN
	1    10650 950 
	0    -1   -1   0   
$EndComp
Wire Wire Line
	9600 1350 9850 1350
Text GLabel 9600 1350 0    50   Input ~ 0
Eth_cs
Wire Wire Line
	9600 1250 9850 1250
Text GLabel 9600 1250 0    50   Input ~ 0
SCK
Wire Wire Line
	9600 1150 9850 1150
Text GLabel 9600 1150 0    50   Input ~ 0
MOSI
Wire Wire Line
	9600 1050 9850 1050
Wire Wire Line
	9600 950  9850 950 
Wire Wire Line
	9600 1000 9600 1050
Wire Wire Line
	9600 1000 9600 950 
Connection ~ 9600 1000
$Comp
L power:GND #PWR?
U 1 1 603D5B64
P 9600 1000
AR Path="/603D5B64" Ref="#PWR?"  Part="1" 
AR Path="/603A6A36/603D5B64" Ref="#PWR0119"  Part="1" 
F 0 "#PWR0119" H 9600 750 50  0001 C CNN
F 1 "GND" V 9605 872 50  0000 R CNN
F 2 "" H 9600 1000 50  0001 C CNN
F 3 "" H 9600 1000 50  0001 C CNN
	1    9600 1000
	0    1    1    0   
$EndComp
$Comp
L Switch:SW_Push SW?
U 1 1 603D5B7B
P 1700 4350
AR Path="/603D5B7B" Ref="SW?"  Part="1" 
AR Path="/603A6A36/603D5B7B" Ref="SW1"  Part="1" 
F 0 "SW1" V 1746 4302 50  0000 R CNN
F 1 "SW_Push" V 1655 4302 50  0000 R CNN
F 2 "Button_Switch_SMD:SW_SPST_SKQG_WithStem" H 1700 4550 50  0001 C CNN
F 3 "~" H 1700 4550 50  0001 C CNN
	1    1700 4350
	0    -1   -1   0   
$EndComp
$Comp
L power:GND #PWR?
U 1 1 603D5B84
P 1250 4600
AR Path="/603D5B84" Ref="#PWR?"  Part="1" 
AR Path="/603A6A36/603D5B84" Ref="#PWR0120"  Part="1" 
F 0 "#PWR0120" H 1250 4350 50  0001 C CNN
F 1 "GND" H 1255 4427 50  0000 C CNN
F 2 "" H 1250 4600 50  0001 C CNN
F 3 "" H 1250 4600 50  0001 C CNN
	1    1250 4600
	1    0    0    -1  
$EndComp
$Comp
L Device:R R?
U 1 1 603D5B8A
P 750 4350
AR Path="/603D5B8A" Ref="R?"  Part="1" 
AR Path="/603A6A36/603D5B8A" Ref="R1"  Part="1" 
F 0 "R1" H 820 4396 50  0000 L CNN
F 1 "1K" H 820 4305 50  0000 L CNN
F 2 "Resistor_SMD:R_0402_1005Metric" V 680 4350 50  0001 C CNN
F 3 "~" H 750 4350 50  0001 C CNN
	1    750  4350
	1    0    0    -1  
$EndComp
$Comp
L Device:C C?
U 1 1 603D5B90
P 1000 4100
AR Path="/603D5B90" Ref="C?"  Part="1" 
AR Path="/603A6A36/603D5B90" Ref="C1"  Part="1" 
F 0 "C1" V 748 4100 50  0000 C CNN
F 1 "100nF" V 839 4100 50  0000 C CNN
F 2 "Capacitor_SMD:C_0402_1005Metric" H 1038 3950 50  0001 C CNN
F 3 "~" H 1000 4100 50  0001 C CNN
	1    1000 4100
	0    1    1    0   
$EndComp
Wire Wire Line
	10250 2700 10250 2550
Text GLabel 10250 2700 3    50   Input ~ 0
CAN_Int
Wire Wire Line
	10350 2550 10350 2700
Wire Wire Line
	10450 2550 10450 2700
Wire Wire Line
	10550 2700 10550 2550
Wire Wire Line
	10650 2700 10650 2550
Wire Wire Line
	10750 2800 10750 2550
Wire Wire Line
	10850 2700 10850 2550
$Comp
L power:GND #PWR?
U 1 1 603D5BA8
P 10750 2800
AR Path="/603D5BA8" Ref="#PWR?"  Part="1" 
AR Path="/603A6A36/603D5BA8" Ref="#PWR0121"  Part="1" 
F 0 "#PWR0121" H 10750 2550 50  0001 C CNN
F 1 "GND" H 10755 2627 50  0000 C CNN
F 2 "" H 10750 2800 50  0001 C CNN
F 3 "" H 10750 2800 50  0001 C CNN
	1    10750 2800
	1    0    0    -1  
$EndComp
Text GLabel 10650 2700 3    50   Input ~ 0
CAN_Cs
Text GLabel 10550 2700 3    50   Input ~ 0
MISO
Text GLabel 10450 2700 3    50   Input ~ 0
MOSI
Text GLabel 10350 2700 3    50   Input ~ 0
SCK
$Comp
L Connector:Conn_01x07_Female J?
U 1 1 603D5BB6
P 10550 2350
AR Path="/603D5BB6" Ref="J?"  Part="1" 
AR Path="/603A6A36/603D5BB6" Ref="J7"  Part="1" 
F 0 "J7" V 10715 2330 50  0000 C CNN
F 1 "CAN" V 10624 2330 50  0000 C CNN
F 2 "CAN_Board:CAN_Board" H 10550 2350 50  0001 C CNN
F 3 "~" H 10550 2350 50  0001 C CNN
	1    10550 2350
	0    -1   -1   0   
$EndComp
Wire Wire Line
	1600 5550 1750 5550
Wire Wire Line
	1000 5450 1100 5450
Wire Wire Line
	1000 5550 1100 5550
Wire Wire Line
	1000 5650 1100 5650
Text GLabel 1000 5650 0    50   Input ~ 0
Reset
Text GLabel 1000 5550 0    50   Input ~ 0
SCK
Text GLabel 1000 5450 0    50   Input ~ 0
MISO
Text GLabel 1750 5550 2    50   Input ~ 0
MOSI
Wire Wire Line
	1850 5650 1600 5650
Wire Wire Line
	1850 5750 1850 5650
Wire Wire Line
	1850 5450 1850 5350
Wire Wire Line
	1600 5450 1850 5450
$Comp
L Connector_Generic:Conn_02x03_Odd_Even J?
U 1 1 603D5BCF
P 1300 5550
AR Path="/603D5BCF" Ref="J?"  Part="1" 
AR Path="/603A6A36/603D5BCF" Ref="J1"  Part="1" 
F 0 "J1" H 1350 5867 50  0000 C CNN
F 1 "ICSP" H 1350 5776 50  0000 C CNN
F 2 "Connector_PinHeader_2.54mm:PinHeader_2x03_P2.54mm_Vertical" H 1300 5550 50  0001 C CNN
F 3 "~" H 1300 5550 50  0001 C CNN
	1    1300 5550
	1    0    0    -1  
$EndComp
$Comp
L power:GND #PWR?
U 1 1 603D5BD5
P 1850 5750
AR Path="/603D5BD5" Ref="#PWR?"  Part="1" 
AR Path="/603A6A36/603D5BD5" Ref="#PWR0122"  Part="1" 
F 0 "#PWR0122" H 1850 5500 50  0001 C CNN
F 1 "GND" H 1855 5577 50  0000 C CNN
F 2 "" H 1850 5750 50  0001 C CNN
F 3 "" H 1850 5750 50  0001 C CNN
	1    1850 5750
	1    0    0    -1  
$EndComp
Text GLabel 1700 4000 1    50   Input ~ 0
Reset
$Comp
L Device:R R?
U 1 1 603D5BDF
P 1250 3850
AR Path="/603D5BDF" Ref="R?"  Part="1" 
AR Path="/603A6A36/603D5BDF" Ref="R2"  Part="1" 
F 0 "R2" H 1320 3896 50  0000 L CNN
F 1 "10K" H 1320 3805 50  0000 L CNN
F 2 "Resistor_SMD:R_0402_1005Metric" V 1180 3850 50  0001 C CNN
F 3 "~" H 1250 3850 50  0001 C CNN
	1    1250 3850
	1    0    0    1   
$EndComp
$Comp
L Device:C C?
U 1 1 603D5BE5
P 1250 4350
AR Path="/603D5BE5" Ref="C?"  Part="1" 
AR Path="/603A6A36/603D5BE5" Ref="C2"  Part="1" 
F 0 "C2" H 1365 4396 50  0000 L CNN
F 1 "1µF" H 1365 4305 50  0000 L CNN
F 2 "Capacitor_SMD:C_0603_1608Metric" H 1288 4200 50  0001 C CNN
F 3 "~" H 1250 4350 50  0001 C CNN
	1    1250 4350
	1    0    0    -1  
$EndComp
Text GLabel 2250 2300 2    50   Input ~ 0
XTAL2
Text GLabel 1150 2300 0    50   Input ~ 0
XTAL1
Wire Wire Line
	1550 2600 1550 2550
$Comp
L power:GND #PWR?
U 1 1 603D5BF2
P 1550 2600
AR Path="/603D5BF2" Ref="#PWR?"  Part="1" 
AR Path="/603A6A36/603D5BF2" Ref="#PWR0123"  Part="1" 
F 0 "#PWR0123" H 1550 2350 50  0001 C CNN
F 1 "GND" H 1555 2427 50  0000 C CNN
F 2 "" H 1550 2600 50  0001 C CNN
F 3 "" H 1550 2600 50  0001 C CNN
	1    1550 2600
	1    0    0    -1  
$EndComp
Wire Wire Line
	3300 2900 3900 2900
Wire Wire Line
	3300 3300 3300 2900
Wire Wire Line
	3900 2900 3900 3000
Wire Wire Line
	4000 2900 4000 3000
Connection ~ 3900 2900
Wire Wire Line
	3900 2900 4000 2900
Wire Wire Line
	3900 2850 3900 2900
$Comp
L power:GND #PWR?
U 1 1 603D5C00
P 3900 6100
AR Path="/603D5C00" Ref="#PWR?"  Part="1" 
AR Path="/603A6A36/603D5C00" Ref="#PWR0124"  Part="1" 
F 0 "#PWR0124" H 3900 5850 50  0001 C CNN
F 1 "GND" H 3905 5927 50  0000 C CNN
F 2 "" H 3900 6100 50  0001 C CNN
F 3 "" H 3900 6100 50  0001 C CNN
	1    3900 6100
	1    0    0    -1  
$EndComp
$Comp
L MCU_Microchip_ATmega:ATmega328-AU U?
U 1 1 603D5C06
P 3900 4500
AR Path="/603D5C06" Ref="U?"  Part="1" 
AR Path="/603A6A36/603D5C06" Ref="U2"  Part="1" 
F 0 "U2" H 4200 3000 50  0000 C CNN
F 1 "ATmega328-AU" H 3400 2950 50  0000 C CNN
F 2 "Package_QFP:TQFP-32_7x7mm_P0.8mm" H 3900 4500 50  0001 C CIN
F 3 "http://ww1.microchip.com/downloads/en/DeviceDoc/ATmega328_P%20AVR%20MCU%20with%20picoPower%20Technology%20Data%20Sheet%2040001984A.pdf" H 3900 4500 50  0001 C CNN
	1    3900 4500
	1    0    0    -1  
$EndComp
Wire Wire Line
	1250 4600 1250 4550
Wire Wire Line
	1250 4550 750  4550
Wire Wire Line
	750  4550 750  4500
Wire Wire Line
	750  4200 750  4100
Wire Wire Line
	750  4100 850  4100
Wire Wire Line
	1150 4100 1250 4100
Wire Wire Line
	1700 4100 1700 4150
Wire Wire Line
	1700 4550 1250 4550
Connection ~ 1250 4550
Wire Wire Line
	1250 4200 1250 4100
Connection ~ 1250 4100
Wire Wire Line
	1250 4100 1700 4100
Wire Wire Line
	1250 4100 1250 4000
Wire Wire Line
	1250 4500 1250 4550
Wire Wire Line
	1700 4100 1700 4000
Connection ~ 1700 4100
$Comp
L Device:C_Small C?
U 1 1 603D5AF4
P 4400 1150
AR Path="/603D5AF4" Ref="C?"  Part="1" 
AR Path="/603A6A36/603D5AF4" Ref="C7"  Part="1" 
F 0 "C7" H 4492 1196 50  0000 L CNN
F 1 "10uF" H 4492 1105 50  0000 L CNN
F 2 "Capacitor_SMD:C_0603_1608Metric" H 4400 1150 50  0001 C CNN
F 3 "~" H 4400 1150 50  0001 C CNN
	1    4400 1150
	1    0    0    -1  
$EndComp
$Comp
L Device:C_Small C?
U 1 1 603D5AEE
P 4750 1150
AR Path="/603D5AEE" Ref="C?"  Part="1" 
AR Path="/603A6A36/603D5AEE" Ref="C8"  Part="1" 
F 0 "C8" H 4842 1196 50  0000 L CNN
F 1 "100nF" H 4842 1105 50  0000 L CNN
F 2 "Capacitor_SMD:C_0402_1005Metric" H 4750 1150 50  0001 C CNN
F 3 "~" H 4750 1150 50  0001 C CNN
	1    4750 1150
	1    0    0    -1  
$EndComp
$Comp
L Device:C_Small C?
U 1 1 603D5AE8
P 5550 1150
AR Path="/603D5AE8" Ref="C?"  Part="1" 
AR Path="/603A6A36/603D5AE8" Ref="C10"  Part="1" 
F 0 "C10" H 5642 1196 50  0000 L CNN
F 1 "100nF" H 5642 1105 50  0000 L CNN
F 2 "Capacitor_SMD:C_0402_1005Metric" H 5550 1150 50  0001 C CNN
F 3 "~" H 5550 1150 50  0001 C CNN
	1    5550 1150
	1    0    0    -1  
$EndComp
$Comp
L Device:C_Small C?
U 1 1 603D5AE2
P 5200 1150
AR Path="/603D5AE2" Ref="C?"  Part="1" 
AR Path="/603A6A36/603D5AE2" Ref="C9"  Part="1" 
F 0 "C9" H 5292 1196 50  0000 L CNN
F 1 "10uF" H 5292 1105 50  0000 L CNN
F 2 "Capacitor_SMD:C_0603_1608Metric" H 5200 1150 50  0001 C CNN
F 3 "~" H 5200 1150 50  0001 C CNN
	1    5200 1150
	1    0    0    -1  
$EndComp
$Comp
L Device:C_Small C?
U 1 1 603D5ADC
P 6000 1150
AR Path="/603D5ADC" Ref="C?"  Part="1" 
AR Path="/603A6A36/603D5ADC" Ref="C11"  Part="1" 
F 0 "C11" H 6092 1196 50  0000 L CNN
F 1 "10uF" H 6092 1105 50  0000 L CNN
F 2 "Capacitor_SMD:C_0603_1608Metric" H 6000 1150 50  0001 C CNN
F 3 "~" H 6000 1150 50  0001 C CNN
	1    6000 1150
	1    0    0    -1  
$EndComp
$Comp
L Device:C_Small C?
U 1 1 603D5AD6
P 6350 1150
AR Path="/603D5AD6" Ref="C?"  Part="1" 
AR Path="/603A6A36/603D5AD6" Ref="C12"  Part="1" 
F 0 "C12" H 6442 1196 50  0000 L CNN
F 1 "100nF" H 6442 1105 50  0000 L CNN
F 2 "Capacitor_SMD:C_0402_1005Metric" H 6350 1150 50  0001 C CNN
F 3 "~" H 6350 1150 50  0001 C CNN
	1    6350 1150
	1    0    0    -1  
$EndComp
$Comp
L power:GND #PWR?
U 1 1 603D5AD0
P 6450 1350
AR Path="/603D5AD0" Ref="#PWR?"  Part="1" 
AR Path="/603A6A36/603D5AD0" Ref="#PWR0125"  Part="1" 
F 0 "#PWR0125" H 6450 1100 50  0001 C CNN
F 1 "GND" H 6455 1177 50  0000 C CNN
F 2 "" H 6450 1350 50  0001 C CNN
F 3 "" H 6450 1350 50  0001 C CNN
	1    6450 1350
	1    0    0    -1  
$EndComp
Wire Wire Line
	4400 1250 4400 1300
Wire Wire Line
	4400 1300 4750 1300
Connection ~ 4750 1300
Wire Wire Line
	4750 1250 4750 1300
Wire Wire Line
	4750 1300 5200 1300
Connection ~ 5200 1300
Wire Wire Line
	5200 1250 5200 1300
Wire Wire Line
	5200 1300 5550 1300
Connection ~ 5550 1300
Wire Wire Line
	5550 1250 5550 1300
Wire Wire Line
	5550 1300 6000 1300
Connection ~ 6000 1300
Wire Wire Line
	6000 1250 6000 1300
Wire Wire Line
	6000 1300 6350 1300
Connection ~ 6350 1300
Wire Wire Line
	6350 1250 6350 1300
Wire Wire Line
	4400 900  4400 1000
Connection ~ 4400 1000
Wire Wire Line
	4400 1000 4750 1000
Connection ~ 4750 1000
Wire Wire Line
	6350 1000 6350 1050
Wire Wire Line
	4400 1000 4400 1050
Wire Wire Line
	4750 1000 4750 1050
Wire Wire Line
	4750 1000 5200 1000
Connection ~ 5200 1000
Wire Wire Line
	5200 1000 5200 1050
Wire Wire Line
	5200 1000 5550 1000
Connection ~ 5550 1000
Wire Wire Line
	5550 1000 5550 1050
Wire Wire Line
	5550 1000 6000 1000
Connection ~ 6000 1000
Wire Wire Line
	6000 1000 6000 1050
Wire Wire Line
	6000 1000 6350 1000
$Comp
L power:+3.3V #PWR?
U 1 1 603D59F2
P 4400 900
AR Path="/603D59F2" Ref="#PWR?"  Part="1" 
AR Path="/603A6A36/603D59F2" Ref="#PWR0126"  Part="1" 
F 0 "#PWR0126" H 4400 750 50  0001 C CNN
F 1 "+3.3V" H 4415 1073 50  0000 C CNN
F 2 "" H 4400 900 50  0001 C CNN
F 3 "" H 4400 900 50  0001 C CNN
	1    4400 900 
	1    0    0    -1  
$EndComp
Wire Wire Line
	6350 1300 6450 1300
Wire Wire Line
	6450 1300 6450 1350
Text GLabel 4550 5300 2    50   Input ~ 0
CAN_Cs
Text GLabel 4550 5100 2    50   Input ~ 0
Tx
Text GLabel 4550 5000 2    50   Input ~ 0
Rx
Text GLabel 4550 5600 2    50   Input ~ 0
CAN_Int
Text GLabel 4550 3500 2    50   Input ~ 0
Eth_cs
Text GLabel 4550 3700 2    50   Input ~ 0
MISO
Text GLabel 4550 4800 2    50   Input ~ 0
Reset
Text GLabel 4550 4000 2    50   Input ~ 0
XTAL2
Text GLabel 4550 3300 2    50   Input ~ 0
Status_Led_1
Text GLabel 4550 3400 2    50   Input ~ 0
Status_Led_2
Text GLabel 4550 3900 2    50   Input ~ 0
XTAL1
Text GLabel 4550 3800 2    50   Input ~ 0
SCK
Text GLabel 4550 3600 2    50   Input ~ 0
MOSI
Wire Wire Line
	4500 3300 4550 3300
Wire Wire Line
	4500 3400 4550 3400
Wire Wire Line
	4500 3500 4550 3500
Wire Wire Line
	4500 3600 4550 3600
Wire Wire Line
	4500 3700 4550 3700
Wire Wire Line
	4500 3800 4550 3800
Wire Wire Line
	4500 3900 4550 3900
Wire Wire Line
	4500 4000 4550 4000
Wire Wire Line
	4500 4800 4550 4800
Wire Wire Line
	4500 5000 4550 5000
Wire Wire Line
	4500 5100 4550 5100
Wire Wire Line
	4500 5300 4550 5300
Wire Wire Line
	4500 5600 4550 5600
Text HLabel 5850 5000 2    50   Input ~ 0
D0_Rx
Text GLabel 5650 5000 0    50   Input ~ 0
Rx
Text HLabel 5850 5100 2    50   Input ~ 0
D1_Tx
Text GLabel 5650 5100 0    50   Input ~ 0
Tx
Text HLabel 5850 5200 2    50   Input ~ 0
D2
Text HLabel 5850 5300 2    50   Input ~ 0
D3_CAN_Cs
Text HLabel 5850 5400 2    50   Input ~ 0
D4
Text HLabel 5850 5500 2    50   Input ~ 0
D5
Text HLabel 5850 5600 2    50   Input ~ 0
D6_Can_Int
Text HLabel 5850 5700 2    50   Input ~ 0
D7
Text GLabel 5650 5300 0    50   Input ~ 0
CAN_Cs
Text GLabel 5650 5600 0    50   Input ~ 0
CAN_Int
Text GLabel 5650 3500 0    50   Input ~ 0
Eth_cs
Text GLabel 5650 3600 0    50   Input ~ 0
MOSI
Text GLabel 5650 3700 0    50   Input ~ 0
MISO
Text GLabel 5650 3800 0    50   Input ~ 0
SCK
Text HLabel 5850 3500 2    50   Input ~ 0
D10_Eth_Cs
Text HLabel 5850 3600 2    50   Input ~ 0
D11_MOSI
Text HLabel 5850 3700 2    50   Input ~ 0
D12_MISO
Text HLabel 5850 3800 2    50   Input ~ 0
D13_SCK
Wire Wire Line
	5650 3500 5750 3500
Wire Wire Line
	5650 3600 5750 3600
Wire Wire Line
	5650 3700 5750 3700
Text HLabel 5850 4200 2    50   Input ~ 0
D14_A0
Text HLabel 5850 4300 2    50   Input ~ 0
D15_A1
Text HLabel 5850 4400 2    50   Input ~ 0
D16_A2
Text HLabel 5850 4500 2    50   Input ~ 0
D17_A3
Text HLabel 5850 4600 2    50   Input ~ 0
D18_A4
Text HLabel 5850 4700 2    50   Input ~ 0
D19_A5
Wire Wire Line
	3900 6100 3900 6000
$Comp
L Connector:Barrel_Jack_MountingPin J2
U 1 1 6073584A
P 1150 1350
F 0 "J2" H 920 1314 50  0000 R CNN
F 1 "Barrel_Jack_MountingPin" H 920 1223 50  0000 R CNN
F 2 "Connector_BarrelJack:BarrelJack_Horizontal" H 1200 1310 50  0001 C CNN
F 3 "~" H 1200 1310 50  0001 C CNN
	1    1150 1350
	-1   0    0    -1  
$EndComp
Connection ~ 850  1050
Wire Wire Line
	850  1050 950  1050
$Comp
L power:GND #PWR0127
U 1 1 60749B7C
P 850 1700
F 0 "#PWR0127" H 850 1450 50  0001 C CNN
F 1 "GND" H 855 1527 50  0000 C CNN
F 2 "" H 850 1700 50  0001 C CNN
F 3 "" H 850 1700 50  0001 C CNN
	1    850  1700
	1    0    0    -1  
$EndComp
Wire Wire Line
	850  1250 850  1050
Wire Wire Line
	850  1450 850  1650
Wire Wire Line
	1150 1650 850  1650
Connection ~ 850  1650
Wire Wire Line
	850  1650 850  1700
$Comp
L Connector_Generic:Conn_02x06_Counter_Clockwise J3
U 1 1 603D4CE8
P 10050 1150
F 0 "J3" H 10100 1567 50  0000 C CNN
F 1 "Conn_02x06_Counter_Clockwise" H 10100 1476 50  0000 C CNN
F 2 "USR-ES1:USR-ES1" H 10050 1150 50  0001 C CNN
F 3 "~" H 10050 1150 50  0001 C CNN
	1    10050 1150
	1    0    0    -1  
$EndComp
Wire Wire Line
	1250 3700 1250 3650
Wire Wire Line
	5750 3500 5750 3550
Connection ~ 5750 3500
Wire Wire Line
	5750 3500 5850 3500
Wire Wire Line
	5750 3600 5750 3650
Connection ~ 5750 3600
Wire Wire Line
	5750 3600 5850 3600
Wire Wire Line
	5750 3700 5750 3750
Connection ~ 5750 3700
Wire Wire Line
	5750 3700 5850 3700
$Comp
L power:+3.3V #PWR?
U 1 1 605623C3
P 6000 6050
AR Path="/605623C3" Ref="#PWR?"  Part="1" 
AR Path="/603A6A36/605623C3" Ref="#PWR0128"  Part="1" 
F 0 "#PWR0128" H 6000 5900 50  0001 C CNN
F 1 "+3.3V" H 6015 6223 50  0000 C CNN
F 2 "" H 6000 6050 50  0001 C CNN
F 3 "" H 6000 6050 50  0001 C CNN
	1    6000 6050
	1    0    0    -1  
$EndComp
$Comp
L power:VS #PWR?
U 1 1 6056A17E
P 6150 6000
AR Path="/6056A17E" Ref="#PWR?"  Part="1" 
AR Path="/603A6A36/6056A17E" Ref="#PWR0129"  Part="1" 
F 0 "#PWR0129" H 5950 5850 50  0001 C CNN
F 1 "VS" H 6165 6173 50  0000 C CNN
F 2 "" H 6150 6000 50  0001 C CNN
F 3 "" H 6150 6000 50  0001 C CNN
	1    6150 6000
	1    0    0    -1  
$EndComp
$Comp
L Connector:Conn_01x01_Female J9
U 1 1 606CE565
P 6600 3650
F 0 "J9" H 6628 3676 50  0000 L CNN
F 1 "Test_point_D11" H 6750 3600 50  0000 L CNN
F 2 "Connector_Wire:SolderWirePad_1x01_SMD_1x2mm" H 6600 3650 50  0001 C CNN
F 3 "~" H 6600 3650 50  0001 C CNN
	1    6600 3650
	1    0    0    -1  
$EndComp
$Comp
L Connector:Conn_01x01_Female J8
U 1 1 606CF4DE
P 6600 3550
F 0 "J8" H 6628 3576 50  0000 L CNN
F 1 "Test_point_D10" H 6750 3500 50  0000 L CNN
F 2 "Connector_Wire:SolderWirePad_1x01_SMD_1x2mm" H 6600 3550 50  0001 C CNN
F 3 "~" H 6600 3550 50  0001 C CNN
	1    6600 3550
	1    0    0    -1  
$EndComp
$Comp
L Connector:Conn_01x01_Female J10
U 1 1 606CF88C
P 6600 3750
F 0 "J10" H 6628 3776 50  0000 L CNN
F 1 "Test_point_D12" H 6750 3700 50  0000 L CNN
F 2 "Connector_Wire:SolderWirePad_1x01_SMD_1x2mm" H 6600 3750 50  0001 C CNN
F 3 "~" H 6600 3750 50  0001 C CNN
	1    6600 3750
	1    0    0    -1  
$EndComp
$Comp
L Connector:Conn_01x01_Female J11
U 1 1 606CFABC
P 6600 3850
F 0 "J11" H 6628 3876 50  0000 L CNN
F 1 "Test_point_D13" H 6750 3800 50  0000 L CNN
F 2 "Connector_Wire:SolderWirePad_1x01_SMD_1x2mm" H 6600 3850 50  0001 C CNN
F 3 "~" H 6600 3850 50  0001 C CNN
	1    6600 3850
	1    0    0    -1  
$EndComp
Wire Wire Line
	4500 4200 5750 4200
Wire Wire Line
	4500 4300 5750 4300
Wire Wire Line
	4500 4400 5750 4400
Wire Wire Line
	4500 4500 5750 4500
Wire Wire Line
	4500 4600 5750 4600
Wire Wire Line
	4500 4700 5750 4700
Wire Wire Line
	5650 5000 5750 5000
Wire Wire Line
	5650 3800 5750 3800
Wire Wire Line
	5650 5100 5750 5100
Wire Wire Line
	4500 5200 5750 5200
Wire Wire Line
	5650 5300 5750 5300
Wire Wire Line
	4500 5400 5750 5400
Wire Wire Line
	4500 5500 5750 5500
Wire Wire Line
	5650 5600 5750 5600
Wire Wire Line
	4500 5700 5750 5700
Wire Wire Line
	5750 3550 6400 3550
Wire Wire Line
	5750 3650 6400 3650
Wire Wire Line
	5750 3750 6400 3750
Wire Wire Line
	5750 3800 5750 3850
Wire Wire Line
	5750 3850 6400 3850
Connection ~ 5750 3800
Wire Wire Line
	5750 3800 5850 3800
$Comp
L Connector:Conn_01x01_Female J12
U 1 1 606FF2E6
P 6600 4250
F 0 "J12" H 6628 4276 50  0000 L CNN
F 1 "Test_point_A0" H 6750 4200 50  0000 L CNN
F 2 "Connector_Wire:SolderWirePad_1x01_SMD_1x2mm" H 6600 4250 50  0001 C CNN
F 3 "~" H 6600 4250 50  0001 C CNN
	1    6600 4250
	1    0    0    -1  
$EndComp
$Comp
L Connector:Conn_01x01_Female J13
U 1 1 606FF6CF
P 6600 4350
F 0 "J13" H 6628 4376 50  0000 L CNN
F 1 "Test_point_A1" H 6750 4300 50  0000 L CNN
F 2 "Connector_Wire:SolderWirePad_1x01_SMD_1x2mm" H 6600 4350 50  0001 C CNN
F 3 "~" H 6600 4350 50  0001 C CNN
	1    6600 4350
	1    0    0    -1  
$EndComp
$Comp
L Connector:Conn_01x01_Female J14
U 1 1 606FF9B1
P 6600 4450
F 0 "J14" H 6628 4476 50  0000 L CNN
F 1 "Test_point_A2" H 6750 4400 50  0000 L CNN
F 2 "Connector_Wire:SolderWirePad_1x01_SMD_1x2mm" H 6600 4450 50  0001 C CNN
F 3 "~" H 6600 4450 50  0001 C CNN
	1    6600 4450
	1    0    0    -1  
$EndComp
$Comp
L Connector:Conn_01x01_Female J15
U 1 1 606FFD0A
P 6600 4550
F 0 "J15" H 6628 4576 50  0000 L CNN
F 1 "Test_point_A3" H 6750 4500 50  0000 L CNN
F 2 "Connector_Wire:SolderWirePad_1x01_SMD_1x2mm" H 6600 4550 50  0001 C CNN
F 3 "~" H 6600 4550 50  0001 C CNN
	1    6600 4550
	1    0    0    -1  
$EndComp
$Comp
L Connector:Conn_01x01_Female J16
U 1 1 606FFFDD
P 6600 4650
F 0 "J16" H 6628 4676 50  0000 L CNN
F 1 "Test_point_A4" H 6750 4600 50  0000 L CNN
F 2 "Connector_Wire:SolderWirePad_1x01_SMD_1x2mm" H 6600 4650 50  0001 C CNN
F 3 "~" H 6600 4650 50  0001 C CNN
	1    6600 4650
	1    0    0    -1  
$EndComp
$Comp
L Connector:Conn_01x01_Female J17
U 1 1 60700316
P 6600 4750
F 0 "J17" H 6628 4776 50  0000 L CNN
F 1 "Test_point_A5" H 6750 4700 50  0000 L CNN
F 2 "Connector_Wire:SolderWirePad_1x01_SMD_1x2mm" H 6600 4750 50  0001 C CNN
F 3 "~" H 6600 4750 50  0001 C CNN
	1    6600 4750
	1    0    0    -1  
$EndComp
$Comp
L Connector:Conn_01x01_Female J18
U 1 1 607018A5
P 6600 5050
F 0 "J18" H 6628 5076 50  0000 L CNN
F 1 "Test_point_D0" H 6750 5000 50  0000 L CNN
F 2 "Connector_Wire:SolderWirePad_1x01_SMD_1x2mm" H 6600 5050 50  0001 C CNN
F 3 "~" H 6600 5050 50  0001 C CNN
	1    6600 5050
	1    0    0    -1  
$EndComp
$Comp
L Connector:Conn_01x01_Female J19
U 1 1 60701D8C
P 6600 5150
F 0 "J19" H 6628 5176 50  0000 L CNN
F 1 "Test_point_D1" H 6750 5100 50  0000 L CNN
F 2 "Connector_Wire:SolderWirePad_1x01_SMD_1x2mm" H 6600 5150 50  0001 C CNN
F 3 "~" H 6600 5150 50  0001 C CNN
	1    6600 5150
	1    0    0    -1  
$EndComp
$Comp
L Connector:Conn_01x01_Female J20
U 1 1 607021E4
P 6600 5250
F 0 "J20" H 6628 5276 50  0000 L CNN
F 1 "Test_point_D2" H 6750 5200 50  0000 L CNN
F 2 "Connector_Wire:SolderWirePad_1x01_SMD_1x2mm" H 6600 5250 50  0001 C CNN
F 3 "~" H 6600 5250 50  0001 C CNN
	1    6600 5250
	1    0    0    -1  
$EndComp
$Comp
L Connector:Conn_01x01_Female J21
U 1 1 607025F0
P 6600 5350
F 0 "J21" H 6628 5376 50  0000 L CNN
F 1 "Test_point_D3" H 6750 5300 50  0000 L CNN
F 2 "Connector_Wire:SolderWirePad_1x01_SMD_1x2mm" H 6600 5350 50  0001 C CNN
F 3 "~" H 6600 5350 50  0001 C CNN
	1    6600 5350
	1    0    0    -1  
$EndComp
$Comp
L Connector:Conn_01x01_Female J22
U 1 1 60702A24
P 6600 5450
F 0 "J22" H 6628 5476 50  0000 L CNN
F 1 "Test_point_D4" H 6750 5400 50  0000 L CNN
F 2 "Connector_Wire:SolderWirePad_1x01_SMD_1x2mm" H 6600 5450 50  0001 C CNN
F 3 "~" H 6600 5450 50  0001 C CNN
	1    6600 5450
	1    0    0    -1  
$EndComp
$Comp
L Connector:Conn_01x01_Female J23
U 1 1 60702E75
P 6600 5550
F 0 "J23" H 6628 5576 50  0000 L CNN
F 1 "Test_point_D5" H 6750 5500 50  0000 L CNN
F 2 "Connector_Wire:SolderWirePad_1x01_SMD_1x2mm" H 6600 5550 50  0001 C CNN
F 3 "~" H 6600 5550 50  0001 C CNN
	1    6600 5550
	1    0    0    -1  
$EndComp
$Comp
L Connector:Conn_01x01_Female J24
U 1 1 607033A6
P 6600 5650
F 0 "J24" H 6628 5676 50  0000 L CNN
F 1 "Test_point_D6" H 6750 5600 50  0000 L CNN
F 2 "Connector_Wire:SolderWirePad_1x01_SMD_1x2mm" H 6600 5650 50  0001 C CNN
F 3 "~" H 6600 5650 50  0001 C CNN
	1    6600 5650
	1    0    0    -1  
$EndComp
$Comp
L Connector:Conn_01x01_Female J25
U 1 1 60703A22
P 6600 5750
F 0 "J25" H 6628 5776 50  0000 L CNN
F 1 "Test_point_D7" H 6750 5700 50  0000 L CNN
F 2 "Connector_Wire:SolderWirePad_1x01_SMD_1x2mm" H 6600 5750 50  0001 C CNN
F 3 "~" H 6600 5750 50  0001 C CNN
	1    6600 5750
	1    0    0    -1  
$EndComp
Wire Wire Line
	5750 4200 5750 4250
Wire Wire Line
	5750 4250 6400 4250
Connection ~ 5750 4200
Wire Wire Line
	5750 4200 5850 4200
Wire Wire Line
	5750 4300 5750 4350
Wire Wire Line
	5750 4350 6400 4350
Connection ~ 5750 4300
Wire Wire Line
	5750 4300 5850 4300
Wire Wire Line
	5750 4400 5750 4450
Wire Wire Line
	5750 4450 6400 4450
Connection ~ 5750 4400
Wire Wire Line
	5750 4400 5850 4400
Wire Wire Line
	5750 4500 5750 4550
Wire Wire Line
	5750 4550 6400 4550
Connection ~ 5750 4500
Wire Wire Line
	5750 4500 5850 4500
Wire Wire Line
	5750 4600 5750 4650
Wire Wire Line
	5750 4650 6400 4650
Connection ~ 5750 4600
Wire Wire Line
	5750 4600 5850 4600
Wire Wire Line
	5750 4700 5750 4750
Wire Wire Line
	5750 4750 6400 4750
Connection ~ 5750 4700
Wire Wire Line
	5750 4700 5850 4700
Wire Wire Line
	5750 5000 5750 5050
Wire Wire Line
	5750 5050 6400 5050
Connection ~ 5750 5000
Wire Wire Line
	5750 5000 5850 5000
Wire Wire Line
	5750 5100 5750 5150
Wire Wire Line
	5750 5150 6400 5150
Connection ~ 5750 5100
Wire Wire Line
	5750 5100 5850 5100
Wire Wire Line
	5750 5200 5750 5250
Wire Wire Line
	5750 5250 6400 5250
Connection ~ 5750 5200
Wire Wire Line
	5750 5200 5850 5200
Wire Wire Line
	5750 5300 5750 5350
Wire Wire Line
	5750 5350 6400 5350
Connection ~ 5750 5300
Wire Wire Line
	5750 5300 5850 5300
Wire Wire Line
	5750 5400 5750 5450
Wire Wire Line
	5750 5450 6400 5450
Connection ~ 5750 5400
Wire Wire Line
	5750 5400 5850 5400
Wire Wire Line
	5750 5500 5750 5550
Wire Wire Line
	5750 5550 6400 5550
Connection ~ 5750 5500
Wire Wire Line
	5750 5500 5850 5500
Wire Wire Line
	5750 5600 5750 5650
Wire Wire Line
	5750 5650 6400 5650
Connection ~ 5750 5600
Wire Wire Line
	5750 5600 5850 5600
Wire Wire Line
	5750 5700 5750 5750
Wire Wire Line
	5750 5750 6400 5750
Connection ~ 5750 5700
Wire Wire Line
	5750 5700 5850 5700
$Comp
L Connector:Conn_01x01_Female J26
U 1 1 607BD688
P 6600 6150
F 0 "J26" H 6628 6176 50  0000 L CNN
F 1 "Test_point_Vs" H 6750 6100 50  0000 L CNN
F 2 "Connector_Wire:SolderWirePad_1x01_SMD_1x2mm" H 6600 6150 50  0001 C CNN
F 3 "~" H 6600 6150 50  0001 C CNN
	1    6600 6150
	1    0    0    -1  
$EndComp
$Comp
L Connector:Conn_01x01_Female J27
U 1 1 607BDBC4
P 6600 6250
F 0 "J27" H 6628 6276 50  0000 L CNN
F 1 "Test_point_3v3" H 6750 6200 50  0000 L CNN
F 2 "Connector_Wire:SolderWirePad_1x01_SMD_1x2mm" H 6600 6250 50  0001 C CNN
F 3 "~" H 6600 6250 50  0001 C CNN
	1    6600 6250
	1    0    0    -1  
$EndComp
$Comp
L Connector:Conn_01x01_Female J28
U 1 1 607BDE46
P 6600 6350
F 0 "J28" H 6628 6376 50  0000 L CNN
F 1 "Test_point_GND" H 6750 6300 50  0000 L CNN
F 2 "Connector_Wire:SolderWirePad_1x01_SMD_1x2mm" H 6600 6350 50  0001 C CNN
F 3 "~" H 6600 6350 50  0001 C CNN
	1    6600 6350
	1    0    0    -1  
$EndComp
Wire Wire Line
	6150 6150 6400 6150
Wire Wire Line
	6150 6000 6150 6150
Wire Wire Line
	6000 6050 6000 6250
Wire Wire Line
	6000 6250 6400 6250
$Comp
L power:GND #PWR0130
U 1 1 607DEC50
P 6150 6400
F 0 "#PWR0130" H 6150 6150 50  0001 C CNN
F 1 "GND" H 6155 6227 50  0000 C CNN
F 2 "" H 6150 6400 50  0001 C CNN
F 3 "" H 6150 6400 50  0001 C CNN
	1    6150 6400
	1    0    0    -1  
$EndComp
Wire Wire Line
	6150 6400 6150 6350
Wire Wire Line
	6150 6350 6400 6350
$EndSCHEMATC
