(module CAN_Board (layer F.Cu) (tedit 603D0015)
  (fp_text reference REF** (at 9 12.5) (layer F.SilkS)
    (effects (font (size 1 1) (thickness 0.15)))
  )
  (fp_text value CAN_Board (at 8.5 -12.5) (layer F.Fab)
    (effects (font (size 1 1) (thickness 0.15)))
  )
  (fp_line (start -20 -13.5) (end -20 13.5) (layer F.SilkS) (width 0.12))
  (fp_line (start 20 13.5) (end 20 -13.5) (layer F.SilkS) (width 0.12))
  (fp_text user Int (at -17.28 -7.62) (layer F.SilkS)
    (effects (font (size 1 1) (thickness 0.15)) (justify left))
  )
  (fp_text user SCK (at -17.28 -5.08) (layer F.SilkS)
    (effects (font (size 1 1) (thickness 0.15)) (justify left))
  )
  (fp_text user MOSI (at -17.28 -2.54) (layer F.SilkS)
    (effects (font (size 1 1) (thickness 0.15)) (justify left))
  )
  (fp_text user MISO (at -17.28 0) (layer F.SilkS)
    (effects (font (size 1 1) (thickness 0.15)) (justify left))
  )
  (fp_text user CS (at -17.28 2.54) (layer F.SilkS)
    (effects (font (size 1 1) (thickness 0.15)) (justify left))
  )
  (fp_text user GND (at -17.28 5.08) (layer F.SilkS)
    (effects (font (size 1 1) (thickness 0.15)) (justify left))
  )
  (fp_text user VS (at -17.28 7.62) (layer F.SilkS)
    (effects (font (size 1 1) (thickness 0.15)) (justify left))
  )
  (fp_line (start -20 13.5) (end -20 14) (layer F.SilkS) (width 0.12))
  (fp_line (start -20 14) (end 20 14) (layer F.SilkS) (width 0.12))
  (fp_line (start 20 14) (end 20 13.5) (layer F.SilkS) (width 0.12))
  (fp_line (start 20 -13.5) (end 20 -14) (layer F.SilkS) (width 0.12))
  (fp_line (start 20 -14) (end -20 -14) (layer F.SilkS) (width 0.12))
  (fp_line (start -20 -14) (end -20 -13.5) (layer F.SilkS) (width 0.12))
  (pad 1 thru_hole circle (at -18.55 -7.62) (size 1.524 1.524) (drill 0.762) (layers *.Cu *.Mask))
  (pad 2 thru_hole circle (at -18.55 -5.08) (size 1.524 1.524) (drill 0.762) (layers *.Cu *.Mask))
  (pad 3 thru_hole circle (at -18.55 -2.54) (size 1.524 1.524) (drill 0.762) (layers *.Cu *.Mask))
  (pad 4 thru_hole circle (at -18.55 0) (size 1.524 1.524) (drill 0.762) (layers *.Cu *.Mask))
  (pad 5 thru_hole circle (at -18.55 2.54) (size 1.524 1.524) (drill 0.762) (layers *.Cu *.Mask))
  (pad 6 thru_hole circle (at -18.55 5.08) (size 1.524 1.524) (drill 0.762) (layers *.Cu *.Mask))
  (pad 7 thru_hole circle (at -18.55 7.62) (size 1.524 1.524) (drill 0.762) (layers *.Cu *.Mask))
  (pad "" thru_hole circle (at -17.5 -11.5) (size 4.5 4.5) (drill 3.2) (layers *.Cu *.Mask))
  (pad "" thru_hole circle (at 17.5 -11.5) (size 4.5 4.5) (drill 3.2) (layers *.Cu *.Mask))
  (pad "" thru_hole circle (at 17.5 11.5) (size 4.5 4.5) (drill 3.2) (layers *.Cu *.Mask))
  (pad "" thru_hole circle (at -17.5 11.5) (size 4.5 4.5) (drill 3.2) (layers *.Cu *.Mask))
)
